---------------------------------------------------------------
[ 2020-01-09T00:05:00+08:00 ] 89.219.227.201 GET 39.97.170.249:80/
[运行时间：0.022928s] [吞吐率：43.61req/s] [内存消耗：2,843.13kb] [文件加载：69]
[ info ] [ LANG ] /www/wwwroot/39.97.170.249/thinkphp/lang/zh-cn.php
[ info ] [ ROUTE ] array (
  'rule' => '',
  'route' => 'home/index/index',
  'option' => 
  array (
    'merge_rule_regex' => false,
    'complete_match' => true,
  ),
  'var' => 
  array (
  ),
)
[ info ] [ HEADER ] array (
  'host' => '39.97.170.249:80',
  'user-agent' => 'Mozilla/5.0 (Windows NT 6.1; WOW64) AppleWebKit/537.36 (KHTML, like Gecko) Chrome/52.0.2743.116 Safari/537.36',
  'content-length' => '0',
)
[ info ] [ PARAM ] array (
)
---------------------------------------------------------------
[ 2020-01-09T00:12:05+08:00 ] 71.6.232.9 GET 39.97.170.249/
[运行时间：0.023052s] [吞吐率：43.38req/s] [内存消耗：2,843.62kb] [文件加载：69]
[ info ] [ LANG ] /www/wwwroot/39.97.170.249/thinkphp/lang/zh-cn.php
[ info ] [ ROUTE ] array (
  'rule' => '',
  'route' => 'home/index/index',
  'option' => 
  array (
    'merge_rule_regex' => false,
    'complete_match' => true,
  ),
  'var' => 
  array (
  ),
)
[ info ] [ HEADER ] array (
  'host' => '39.97.170.249',
  'user-agent' => 'Mozilla/5.0 (Windows NT 10.0; Win64; x64) AppleWebKit/537.36 (KHTML, like Gecko) Chrome/57.0.2987.133 Safari/537.36',
  'accept' => '*/*',
  'accept-encoding' => 'gzip',
)
[ info ] [ PARAM ] array (
)
---------------------------------------------------------------
[ 2020-01-09T00:20:38+08:00 ] 109.111.137.104 GET 39.97.170.249:80/
[运行时间：0.022327s] [吞吐率：44.79req/s] [内存消耗：2,843.14kb] [文件加载：69]
[ info ] [ LANG ] /www/wwwroot/39.97.170.249/thinkphp/lang/zh-cn.php
[ info ] [ ROUTE ] array (
  'rule' => '',
  'route' => 'home/index/index',
  'option' => 
  array (
    'merge_rule_regex' => false,
    'complete_match' => true,
  ),
  'var' => 
  array (
  ),
)
[ info ] [ HEADER ] array (
  'host' => '39.97.170.249:80',
  'user-agent' => 'Mozilla/5.0 (Windows NT 6.1; WOW64) AppleWebKit/537.36 (KHTML, like Gecko) Chrome/51.0.2704.103 Safari/537.36',
  'content-length' => '0',
)
[ info ] [ PARAM ] array (
)
---------------------------------------------------------------
[ 2020-01-09T01:43:11+08:00 ] 2.177.120.177 GET 39.97.170.249:80/
[运行时间：0.032018s] [吞吐率：31.23req/s] [内存消耗：2,843.24kb] [文件加载：69]
[ info ] [ LANG ] /www/wwwroot/39.97.170.249/thinkphp/lang/zh-cn.php
[ info ] [ ROUTE ] array (
  'rule' => '',
  'route' => 'home/index/index',
  'option' => 
  array (
    'merge_rule_regex' => false,
    'complete_match' => true,
  ),
  'var' => 
  array (
  ),
)
[ info ] [ HEADER ] array (
  'host' => '39.97.170.249:80',
  'user-agent' => 'Mozilla/5.0 (Windows NT 10.0; WOW64) AppleWebKit/537.36 (KHTML, like Gecko) Chrome/51.0.2704.103 Safari/537.36',
  'content-length' => '0',
)
[ info ] [ PARAM ] array (
)
---------------------------------------------------------------
[ 2020-01-09T01:43:11+08:00 ] 2.177.120.177 GET 39.97.170.249:80/
[运行时间：0.031492s] [吞吐率：31.75req/s] [内存消耗：2,843.14kb] [文件加载：69]
[ info ] [ LANG ] /www/wwwroot/39.97.170.249/thinkphp/lang/zh-cn.php
[ info ] [ ROUTE ] array (
  'rule' => '',
  'route' => 'home/index/index',
  'option' => 
  array (
    'merge_rule_regex' => false,
    'complete_match' => true,
  ),
  'var' => 
  array (
  ),
)
[ info ] [ HEADER ] array (
  'host' => '39.97.170.249:80',
  'user-agent' => 'Mozilla/5.0 (Windows NT 6.1; WOW64) AppleWebKit/537.36 (KHTML, like Gecko) Chrome/52.0.2743.116 Safari/537.36',
  'content-length' => '0',
)
[ info ] [ PARAM ] array (
)
---------------------------------------------------------------
[ 2020-01-09T03:00:57+08:00 ] 141.8.142.69 GET tihuakeji.com/
[运行时间：0.022967s] [吞吐率：43.54req/s] [内存消耗：2,844.63kb] [文件加载：69]
[ info ] [ LANG ] /www/wwwroot/39.97.170.249/thinkphp/lang/zh-cn.php
[ info ] [ ROUTE ] array (
  'rule' => '',
  'route' => 'home/index/index',
  'option' => 
  array (
    'merge_rule_regex' => false,
    'complete_match' => true,
  ),
  'var' => 
  array (
  ),
)
[ info ] [ HEADER ] array (
  'host' => 'tihuakeji.com',
  'connection' => 'Keep-Alive',
  'user-agent' => 'Mozilla/5.0 (compatible; YandexBot/3.0; +http://yandex.com/bots)',
  'from' => 'support@search.yandex.ru',
  'accept-encoding' => 'gzip,deflate',
  'accept' => '*/*',
)
[ info ] [ PARAM ] array (
)
---------------------------------------------------------------
[ 2020-01-09T03:01:01+08:00 ] 141.8.142.69 GET tihuakeji.com/login
[运行时间：0.023792s] [吞吐率：42.03req/s] [内存消耗：2,962.07kb] [文件加载：69]
[ info ] [ LANG ] /www/wwwroot/39.97.170.249/thinkphp/lang/zh-cn.php
[ info ] [ ROUTE ] array (
  'rule' => 'login',
  'route' => 'home/login/login',
  'option' => 
  array (
    'merge_rule_regex' => false,
  ),
  'var' => 
  array (
  ),
)
[ info ] [ HEADER ] array (
  'host' => 'tihuakeji.com',
  'connection' => 'Keep-Alive',
  'user-agent' => 'Mozilla/5.0 (compatible; YandexBot/3.0; +http://yandex.com/bots)',
  'from' => 'support@search.yandex.ru',
  'accept-encoding' => 'gzip,deflate',
  'accept' => '*/*',
)
[ info ] [ PARAM ] array (
)
[ info ] [ VIEW ] /www/wwwroot/39.97.170.249/application/home/view/login/login.html [ array (
  0 => 'sys',
  1 => 'action',
  2 => 'controller',
) ]
---------------------------------------------------------------
[ 2020-01-09T04:10:57+08:00 ] 47.98.96.116 GET tihuakeji.com/
[运行时间：0.023201s] [吞吐率：43.10req/s] [内存消耗：2,843.57kb] [文件加载：69]
[ info ] [ LANG ] /www/wwwroot/39.97.170.249/thinkphp/lang/zh-cn.php
[ info ] [ ROUTE ] array (
  'rule' => '',
  'route' => 'home/index/index',
  'option' => 
  array (
    'merge_rule_regex' => false,
    'complete_match' => true,
  ),
  'var' => 
  array (
  ),
)
[ info ] [ HEADER ] array (
  'user-agent' => 'Mozilla/5.0 (Linux; Android 4.1.1; Nexus 7 Build/JRO03D)',
  'host' => 'tihuakeji.com',
  'connection' => 'Keep-Alive',
  'accept-encoding' => 'gzip',
)
[ info ] [ PARAM ] array (
)
---------------------------------------------------------------
[ 2020-01-09T04:10:57+08:00 ] 47.98.96.116 GET tihuakeji.com/login
[运行时间：0.023877s] [吞吐率：41.88req/s] [内存消耗：2,961.47kb] [文件加载：69]
[ info ] [ LANG ] /www/wwwroot/39.97.170.249/thinkphp/lang/zh-cn.php
[ info ] [ ROUTE ] array (
  'rule' => 'login',
  'route' => 'home/login/login',
  'option' => 
  array (
    'merge_rule_regex' => false,
  ),
  'var' => 
  array (
  ),
)
[ info ] [ HEADER ] array (
  'user-agent' => 'Mozilla/5.0 (Linux; Android 4.1.1; Nexus 7 Build/JRO03D)',
  'host' => 'tihuakeji.com',
  'connection' => 'Keep-Alive',
  'accept-encoding' => 'gzip',
)
[ info ] [ PARAM ] array (
)
[ info ] [ VIEW ] /www/wwwroot/39.97.170.249/application/home/view/login/login.html [ array (
  0 => 'sys',
  1 => 'action',
  2 => 'controller',
) ]
---------------------------------------------------------------
[ 2020-01-09T04:15:35+08:00 ] 47.97.220.124 GET www.tihuakeji.com/
[运行时间：0.023126s] [吞吐率：43.24req/s] [内存消耗：2,843.43kb] [文件加载：69]
[ info ] [ LANG ] /www/wwwroot/39.97.170.249/thinkphp/lang/zh-cn.php
[ info ] [ ROUTE ] array (
  'rule' => '',
  'route' => 'home/index/index',
  'option' => 
  array (
    'merge_rule_regex' => false,
    'complete_match' => true,
  ),
  'var' => 
  array (
  ),
)
[ info ] [ HEADER ] array (
  'user-agent' => 'Mozilla/5.0 (Linux; Android 4.1.1; Nexus 7 Build/JRO03D)',
  'host' => 'www.tihuakeji.com',
  'connection' => 'Keep-Alive',
  'accept-encoding' => 'gzip',
)
[ info ] [ PARAM ] array (
)
---------------------------------------------------------------
[ 2020-01-09T04:15:36+08:00 ] 47.97.220.124 GET www.tihuakeji.com/login
[运行时间：0.024324s] [吞吐率：41.11req/s] [内存消耗：2,961.41kb] [文件加载：69]
[ info ] [ LANG ] /www/wwwroot/39.97.170.249/thinkphp/lang/zh-cn.php
[ info ] [ ROUTE ] array (
  'rule' => 'login',
  'route' => 'home/login/login',
  'option' => 
  array (
    'merge_rule_regex' => false,
  ),
  'var' => 
  array (
  ),
)
[ info ] [ HEADER ] array (
  'user-agent' => 'Mozilla/5.0 (Linux; Android 4.1.1; Nexus 7 Build/JRO03D)',
  'host' => 'www.tihuakeji.com',
  'connection' => 'Keep-Alive',
  'accept-encoding' => 'gzip',
)
[ info ] [ PARAM ] array (
)
[ info ] [ VIEW ] /www/wwwroot/39.97.170.249/application/home/view/login/login.html [ array (
  0 => 'sys',
  1 => 'action',
  2 => 'controller',
) ]
---------------------------------------------------------------
[ 2020-01-09T04:58:22+08:00 ] 45.56.78.64 GET 39.97.170.249/Word.dotm
[运行时间：0.018844s] [吞吐率：53.07req/s] [内存消耗：2,243.25kb] [文件加载：54]
[ info ] [ LANG ] /www/wwwroot/39.97.170.249/thinkphp/lang/zh-cn.php
---------------------------------------------------------------
[ 2020-01-09T05:35:29+08:00 ] 61.2.133.3 POST 39.97.170.249:80/HNAP1/
[运行时间：0.018099s] [吞吐率：55.25req/s] [内存消耗：2,220.78kb] [文件加载：53]
[ info ] [ LANG ] /www/wwwroot/39.97.170.249/thinkphp/lang/zh-cn.php
---------------------------------------------------------------
[ 2020-01-09T05:44:18+08:00 ] 45.148.121.4 GET 39.97.170.249:80/
[运行时间：0.022854s] [吞吐率：43.76req/s] [内存消耗：2,843.45kb] [文件加载：69]
[ info ] [ LANG ] /www/wwwroot/39.97.170.249/thinkphp/lang/zh-cn.php
[ info ] [ ROUTE ] array (
  'rule' => '',
  'route' => 'home/index/index',
  'option' => 
  array (
    'merge_rule_regex' => false,
    'complete_match' => true,
  ),
  'var' => 
  array (
  ),
)
[ info ] [ HEADER ] array (
  'te' => 'deflate,gzip;q=0.3',
  'connection' => 'TE, close',
  'host' => '39.97.170.249:80',
  'user-agent' => 'libwww-perl/6.13',
)
[ info ] [ PARAM ] array (
)
---------------------------------------------------------------
[ 2020-01-09T05:44:18+08:00 ] 45.148.121.4 GET 39.97.170.249:80/login
[运行时间：0.023640s] [吞吐率：42.30req/s] [内存消耗：2,961.21kb] [文件加载：69]
[ info ] [ LANG ] /www/wwwroot/39.97.170.249/thinkphp/lang/zh-cn.php
[ info ] [ ROUTE ] array (
  'rule' => 'login',
  'route' => 'home/login/login',
  'option' => 
  array (
    'merge_rule_regex' => false,
  ),
  'var' => 
  array (
  ),
)
[ info ] [ HEADER ] array (
  'te' => 'deflate,gzip;q=0.3',
  'connection' => 'TE, close',
  'host' => '39.97.170.249:80',
  'user-agent' => 'libwww-perl/6.13',
)
[ info ] [ PARAM ] array (
)
[ info ] [ VIEW ] /www/wwwroot/39.97.170.249/application/home/view/login/login.html [ array (
  0 => 'sys',
  1 => 'action',
  2 => 'controller',
) ]
---------------------------------------------------------------
[ 2020-01-09T07:01:45+08:00 ] 85.187.254.11 GET 39.97.170.249:80/
[运行时间：0.023448s] [吞吐率：42.65req/s] [内存消耗：2,843.24kb] [文件加载：69]
[ info ] [ LANG ] /www/wwwroot/39.97.170.249/thinkphp/lang/zh-cn.php
[ info ] [ ROUTE ] array (
  'rule' => '',
  'route' => 'home/index/index',
  'option' => 
  array (
    'merge_rule_regex' => false,
    'complete_match' => true,
  ),
  'var' => 
  array (
  ),
)
[ info ] [ HEADER ] array (
  'host' => '39.97.170.249:80',
  'user-agent' => 'Mozilla/5.0 (Windows NT 10.0; WOW64) AppleWebKit/537.36 (KHTML, like Gecko) Chrome/52.0.2743.116 Safari/537.36',
  'content-length' => '0',
)
[ info ] [ PARAM ] array (
)
---------------------------------------------------------------
[ 2020-01-09T12:05:46+08:00 ] 85.104.123.44 GET 39.97.170.249:80/
[运行时间：0.023081s] [吞吐率：43.33req/s] [内存消耗：2,843.24kb] [文件加载：69]
[ info ] [ LANG ] /www/wwwroot/39.97.170.249/thinkphp/lang/zh-cn.php
[ info ] [ ROUTE ] array (
  'rule' => '',
  'route' => 'home/index/index',
  'option' => 
  array (
    'merge_rule_regex' => false,
    'complete_match' => true,
  ),
  'var' => 
  array (
  ),
)
[ info ] [ HEADER ] array (
  'host' => '39.97.170.249:80',
  'user-agent' => 'Mozilla/5.0 (Windows NT 10.0; WOW64) AppleWebKit/537.36 (KHTML, like Gecko) Chrome/51.0.2704.103 Safari/537.36',
  'content-length' => '0',
)
[ info ] [ PARAM ] array (
)
---------------------------------------------------------------
[ 2020-01-09T13:37:11+08:00 ] 64.225.126.82 GET 39.97.170.249/
[运行时间：0.022431s] [吞吐率：44.58req/s] [内存消耗：2,842.12kb] [文件加载：69]
[ info ] [ LANG ] /www/wwwroot/39.97.170.249/thinkphp/lang/zh-cn.php
[ info ] [ ROUTE ] array (
  'rule' => '',
  'route' => 'home/index/index',
  'option' => 
  array (
    'merge_rule_regex' => false,
    'complete_match' => true,
  ),
  'var' => 
  array (
  ),
)
[ info ] [ HEADER ] array (
  'user-agent' => 'Mozilla/5.0 (Windows NT 10.0; WOW64) AppleWebKit/537.36 (KHTML, like Gecko) Chrome/51.0.2704.103 Safari/537.36',
  'host' => '39.97.170.249',
)
[ info ] [ PARAM ] array (
)
---------------------------------------------------------------
[ 2020-01-09T13:48:16+08:00 ] 41.139.228.33 GET 39.97.170.249:80/
[运行时间：0.022925s] [吞吐率：43.62req/s] [内存消耗：2,843.24kb] [文件加载：69]
[ info ] [ LANG ] /www/wwwroot/39.97.170.249/thinkphp/lang/zh-cn.php
[ info ] [ ROUTE ] array (
  'rule' => '',
  'route' => 'home/index/index',
  'option' => 
  array (
    'merge_rule_regex' => false,
    'complete_match' => true,
  ),
  'var' => 
  array (
  ),
)
[ info ] [ HEADER ] array (
  'host' => '39.97.170.249:80',
  'user-agent' => 'Mozilla/5.0 (Windows NT 10.0; WOW64) AppleWebKit/537.36 (KHTML, like Gecko) Chrome/51.0.2704.103 Safari/537.36',
  'content-length' => '0',
)
[ info ] [ PARAM ] array (
)
---------------------------------------------------------------
[ 2020-01-09T13:51:02+08:00 ] 84.17.60.130 GET tihuakeji.com/
[运行时间：0.022627s] [吞吐率：44.19req/s] [内存消耗：2,844.03kb] [文件加载：69]
[ info ] [ LANG ] /www/wwwroot/39.97.170.249/thinkphp/lang/zh-cn.php
[ info ] [ ROUTE ] array (
  'rule' => '',
  'route' => 'home/index/index',
  'option' => 
  array (
    'merge_rule_regex' => false,
    'complete_match' => true,
  ),
  'var' => 
  array (
  ),
)
[ info ] [ HEADER ] array (
  'accept' => 'text/html,application/xhtml+xml,application/xml;q=0.9,image/webp,*/*;q=0.8',
  'user-agent' => 'Mozilla/5.0 (Windows NT 10.0; Win64; x64) AppleWebKit/537.36 (KHTML, like Gecko) Chrome/58.0.3029.110 Safari/537.36 Edge/16.16299',
  'referer' => 'http://tihuakeji.com/',
  'host' => 'tihuakeji.com',
  'connection' => 'close',
)
[ info ] [ PARAM ] array (
)
---------------------------------------------------------------
[ 2020-01-09T13:51:03+08:00 ] 84.17.60.130 GET tihuakeji.com/login
[运行时间：0.023702s] [吞吐率：42.19req/s] [内存消耗：2,962.84kb] [文件加载：69]
[ info ] [ LANG ] /www/wwwroot/39.97.170.249/thinkphp/lang/zh-cn.php
[ info ] [ ROUTE ] array (
  'rule' => 'login',
  'route' => 'home/login/login',
  'option' => 
  array (
    'merge_rule_regex' => false,
  ),
  'var' => 
  array (
  ),
)
[ info ] [ HEADER ] array (
  'accept' => 'text/html,application/xhtml+xml,application/xml;q=0.9,image/webp,*/*;q=0.8',
  'user-agent' => 'Mozilla/5.0 (Windows NT 10.0; Win64; x64) AppleWebKit/537.36 (KHTML, like Gecko) Chrome/58.0.3029.110 Safari/537.36 Edge/16.16299',
  'referer' => 'http://tihuakeji.com/login',
  'host' => 'tihuakeji.com',
  'connection' => 'close',
  'cookie' => 'PHPSESSID=7b2d1a509ead1180cf8b8f2ced0296bc',
)
[ info ] [ PARAM ] array (
)
[ info ] [ VIEW ] /www/wwwroot/39.97.170.249/application/home/view/login/login.html [ array (
  0 => 'sys',
  1 => 'action',
  2 => 'controller',
) ]
---------------------------------------------------------------
[ 2020-01-09T17:49:51+08:00 ] 47.101.58.149 GET 39.97.170.249/
[运行时间：0.023184s] [吞吐率：43.13req/s] [内存消耗：2,843.26kb] [文件加载：69]
[ info ] [ LANG ] /www/wwwroot/39.97.170.249/thinkphp/lang/zh-cn.php
[ info ] [ ROUTE ] array (
  'rule' => '',
  'route' => 'home/index/index',
  'option' => 
  array (
    'merge_rule_regex' => false,
    'complete_match' => true,
  ),
  'var' => 
  array (
  ),
)
[ info ] [ HEADER ] array (
  'user-agent' => 'Mozilla/5.0 (X11; Ubuntu; Linux x86_64; rv:36.0) Gecko/20100101 Firefox/36.0',
  'host' => '39.97.170.249',
  'connection' => 'Keep-Alive',
  'accept-encoding' => 'gzip',
)
[ info ] [ PARAM ] array (
)
---------------------------------------------------------------
[ 2020-01-09T17:49:51+08:00 ] 47.101.58.149 GET 39.97.170.249/login
[运行时间：0.023560s] [吞吐率：42.44req/s] [内存消耗：2,961.42kb] [文件加载：69]
[ info ] [ LANG ] /www/wwwroot/39.97.170.249/thinkphp/lang/zh-cn.php
[ info ] [ ROUTE ] array (
  'rule' => 'login',
  'route' => 'home/login/login',
  'option' => 
  array (
    'merge_rule_regex' => false,
  ),
  'var' => 
  array (
  ),
)
[ info ] [ HEADER ] array (
  'user-agent' => 'Mozilla/5.0 (X11; Ubuntu; Linux x86_64; rv:36.0) Gecko/20100101 Firefox/36.0',
  'host' => '39.97.170.249',
  'connection' => 'Keep-Alive',
  'accept-encoding' => 'gzip',
)
[ info ] [ PARAM ] array (
)
[ info ] [ VIEW ] /www/wwwroot/39.97.170.249/application/home/view/login/login.html [ array (
  0 => 'sys',
  1 => 'action',
  2 => 'controller',
) ]
---------------------------------------------------------------
[ 2020-01-09T17:49:53+08:00 ] 47.101.58.149 GET 39.97.170.249/user/index
[运行时间：0.024481s] [吞吐率：40.85req/s] [内存消耗：2,978.05kb] [文件加载：69]
[ info ] [ LANG ] /www/wwwroot/39.97.170.249/thinkphp/lang/zh-cn.php
[ info ] [ ROUTE ] array (
  'rule' => 'user/index',
  'route' => 'home/user/index',
  'option' => 
  array (
    'merge_rule_regex' => false,
  ),
  'var' => 
  array (
  ),
)
[ info ] [ HEADER ] array (
  'user-agent' => 'Mozilla/5.0 (X11; Ubuntu; Linux x86_64; rv:36.0) Gecko/20100101 Firefox/36.0',
  'host' => '39.97.170.249',
  'connection' => 'Keep-Alive',
  'accept-encoding' => 'gzip',
)
[ info ] [ PARAM ] array (
)
---------------------------------------------------------------
[ 2020-01-09T17:49:53+08:00 ] 47.101.58.149 GET 39.97.170.249/login
[运行时间：0.025150s] [吞吐率：39.76req/s] [内存消耗：2,961.42kb] [文件加载：69]
[ info ] [ LANG ] /www/wwwroot/39.97.170.249/thinkphp/lang/zh-cn.php
[ info ] [ ROUTE ] array (
  'rule' => 'login',
  'route' => 'home/login/login',
  'option' => 
  array (
    'merge_rule_regex' => false,
  ),
  'var' => 
  array (
  ),
)
[ info ] [ HEADER ] array (
  'user-agent' => 'Mozilla/5.0 (X11; Ubuntu; Linux x86_64; rv:36.0) Gecko/20100101 Firefox/36.0',
  'host' => '39.97.170.249',
  'connection' => 'Keep-Alive',
  'accept-encoding' => 'gzip',
)
[ info ] [ PARAM ] array (
)
[ info ] [ VIEW ] /www/wwwroot/39.97.170.249/application/home/view/login/login.html [ array (
  0 => 'sys',
  1 => 'action',
  2 => 'controller',
) ]
---------------------------------------------------------------
[ 2020-01-09T18:29:04+08:00 ] 47.102.156.143 GET www.tihuakeji.com/
[运行时间：0.023234s] [吞吐率：43.04req/s] [内存消耗：2,844.26kb] [文件加载：69]
[ info ] [ LANG ] /www/wwwroot/39.97.170.249/thinkphp/lang/zh-cn.php
[ info ] [ ROUTE ] array (
  'rule' => '',
  'route' => 'home/index/index',
  'option' => 
  array (
    'merge_rule_regex' => false,
    'complete_match' => true,
  ),
  'var' => 
  array (
  ),
)
[ info ] [ HEADER ] array (
  'accept' => 'text/html,application/xhtml+xml,application/xml;q=0.9,*/*;q=0.8',
  'accept-language' => 'en',
  'user-agent' => 'Mozilla/5.0 (Windows NT 6.2; WOW64) AppleWebKit/537.36 (KHTML, like Gecko) Chrome/27.0.1500.55 Safari/537.36',
  'accept-encoding' => 'gzip,deflate',
  'host' => 'www.tihuakeji.com',
)
[ info ] [ PARAM ] array (
)
---------------------------------------------------------------
[ 2020-01-09T18:29:04+08:00 ] 47.102.156.143 GET www.tihuakeji.com/login
[运行时间：0.023397s] [吞吐率：42.74req/s] [内存消耗：2,962.69kb] [文件加载：69]
[ info ] [ LANG ] /www/wwwroot/39.97.170.249/thinkphp/lang/zh-cn.php
[ info ] [ ROUTE ] array (
  'rule' => 'login',
  'route' => 'home/login/login',
  'option' => 
  array (
    'merge_rule_regex' => false,
  ),
  'var' => 
  array (
  ),
)
[ info ] [ HEADER ] array (
  'accept' => 'text/html,application/xhtml+xml,application/xml;q=0.9,*/*;q=0.8',
  'accept-language' => 'en',
  'user-agent' => 'Mozilla/5.0 (Windows NT 6.1) AppleWebKit/537.36 (KHTML, like Gecko) Chrome/27.0.1453.90 Safari/537.36',
  'accept-encoding' => 'gzip,deflate',
  'cookie' => 'PHPSESSID=60c1a6d78c8189e67d9bd4e0ded33f0e',
  'host' => 'www.tihuakeji.com',
)
[ info ] [ PARAM ] array (
)
[ info ] [ VIEW ] /www/wwwroot/39.97.170.249/application/home/view/login/login.html [ array (
  0 => 'sys',
  1 => 'action',
  2 => 'controller',
) ]
---------------------------------------------------------------
[ 2020-01-09T18:59:28+08:00 ] 151.235.222.109 GET 39.97.170.249:80/
[运行时间：0.023243s] [吞吐率：43.02req/s] [内存消耗：2,843.24kb] [文件加载：69]
[ info ] [ LANG ] /www/wwwroot/39.97.170.249/thinkphp/lang/zh-cn.php
[ info ] [ ROUTE ] array (
  'rule' => '',
  'route' => 'home/index/index',
  'option' => 
  array (
    'merge_rule_regex' => false,
    'complete_match' => true,
  ),
  'var' => 
  array (
  ),
)
[ info ] [ HEADER ] array (
  'host' => '39.97.170.249:80',
  'user-agent' => 'Mozilla/5.0 (Windows NT 10.0; WOW64) AppleWebKit/537.36 (KHTML, like Gecko) Chrome/51.0.2704.103 Safari/537.36',
  'content-length' => '0',
)
[ info ] [ PARAM ] array (
)
---------------------------------------------------------------
[ 2020-01-09T19:38:56+08:00 ] 222.182.58.163 GET 39.97.170.249/
[运行时间：0.022853s] [吞吐率：43.76req/s] [内存消耗：2,845.13kb] [文件加载：69]
[ info ] [ LANG ] /www/wwwroot/39.97.170.249/thinkphp/lang/zh-cn.php
[ info ] [ ROUTE ] array (
  'rule' => '',
  'route' => 'home/index/index',
  'option' => 
  array (
    'merge_rule_regex' => false,
    'complete_match' => true,
  ),
  'var' => 
  array (
  ),
)
[ info ] [ HEADER ] array (
  'user-agent' => 'Mozilla/5.0 (Windows NT 10.0; Win64; x64) AppleWebKit/537.36 (KHTML, like Gecko) Chrome/74.0.3729.157 Safari/537.36',
  'accept' => 'text/html,application/xhtml+xml,application/xml;q=0.9,image/webp,image/apng,*/*;q=0.8,application/signed-exchange;v=b3',
  'accept-language' => 'zh-CN,zh;q=0.9',
  'accept-charset' => 'GB2312,utf-8;q=0.7,*;q=0.7',
  'accept-encoding' => 'gzip,deflate',
  'host' => '39.97.170.249',
)
[ info ] [ PARAM ] array (
)
---------------------------------------------------------------
[ 2020-01-09T19:38:57+08:00 ] 222.182.58.163 GET 39.97.170.249/login
[运行时间：0.024458s] [吞吐率：40.89req/s] [内存消耗：2,963.85kb] [文件加载：69]
[ info ] [ LANG ] /www/wwwroot/39.97.170.249/thinkphp/lang/zh-cn.php
[ info ] [ ROUTE ] array (
  'rule' => 'login',
  'route' => 'home/login/login',
  'option' => 
  array (
    'merge_rule_regex' => false,
  ),
  'var' => 
  array (
  ),
)
[ info ] [ HEADER ] array (
  'user-agent' => 'Mozilla/5.0 (Windows NT 10.0; Win64; x64) AppleWebKit/537.36 (KHTML, like Gecko) Chrome/74.0.3729.157 Safari/537.36',
  'accept' => 'text/html,application/xhtml+xml,application/xml;q=0.9,image/webp,image/apng,*/*;q=0.8,application/signed-exchange;v=b3',
  'accept-language' => 'zh-CN,zh;q=0.9',
  'accept-charset' => 'GB2312,utf-8;q=0.7,*;q=0.7',
  'accept-encoding' => 'gzip,deflate',
  'cookie' => 'PHPSESSID=330658e95d6a2d6aece14ce51c3b8994',
  'host' => '39.97.170.249',
)
[ info ] [ PARAM ] array (
)
[ info ] [ VIEW ] /www/wwwroot/39.97.170.249/application/home/view/login/login.html [ array (
  0 => 'sys',
  1 => 'action',
  2 => 'controller',
) ]
---------------------------------------------------------------
[ 2020-01-09T21:41:00+08:00 ] 138.117.6.157 GET 39.97.170.249:80/
[运行时间：0.022771s] [吞吐率：43.92req/s] [内存消耗：2,843.14kb] [文件加载：69]
[ info ] [ LANG ] /www/wwwroot/39.97.170.249/thinkphp/lang/zh-cn.php
[ info ] [ ROUTE ] array (
  'rule' => '',
  'route' => 'home/index/index',
  'option' => 
  array (
    'merge_rule_regex' => false,
    'complete_match' => true,
  ),
  'var' => 
  array (
  ),
)
[ info ] [ HEADER ] array (
  'host' => '39.97.170.249:80',
  'user-agent' => 'Mozilla/5.0 (Windows NT 6.1; WOW64) AppleWebKit/537.36 (KHTML, like Gecko) Chrome/51.0.2704.103 Safari/537.36',
  'content-length' => '0',
)
[ info ] [ PARAM ] array (
)
---------------------------------------------------------------
[ 2020-01-09T22:37:35+08:00 ] 177.223.100.22 GET 39.97.170.249:80/
[运行时间：0.023323s] [吞吐率：42.88req/s] [内存消耗：2,843.14kb] [文件加载：69]
[ info ] [ LANG ] /www/wwwroot/39.97.170.249/thinkphp/lang/zh-cn.php
[ info ] [ ROUTE ] array (
  'rule' => '',
  'route' => 'home/index/index',
  'option' => 
  array (
    'merge_rule_regex' => false,
    'complete_match' => true,
  ),
  'var' => 
  array (
  ),
)
[ info ] [ HEADER ] array (
  'host' => '39.97.170.249:80',
  'user-agent' => 'Mozilla/5.0 (Windows NT 6.1; WOW64) AppleWebKit/537.36 (KHTML, like Gecko) Chrome/52.0.2743.116 Safari/537.36',
  'content-length' => '0',
)
[ info ] [ PARAM ] array (
)
---------------------------------------------------------------
[ 2020-01-09T23:14:15+08:00 ] 221.179.144.118 GET tihuakeji.com/
[运行时间：0.022684s] [吞吐率：44.08req/s] [内存消耗：2,843.76kb] [文件加载：69]
[ info ] [ LANG ] /www/wwwroot/39.97.170.249/thinkphp/lang/zh-cn.php
[ info ] [ ROUTE ] array (
  'rule' => '',
  'route' => 'home/index/index',
  'option' => 
  array (
    'merge_rule_regex' => false,
    'complete_match' => true,
  ),
  'var' => 
  array (
  ),
)
[ info ] [ HEADER ] array (
  'accept-encoding' => 'gzip',
  'host' => 'tihuakeji.com',
  'connection' => 'Keep-Alive',
  'user-agent' => 'Mozilla/5.0 (Windows NT 5.2) AppleWebKit/534.30 (KHTML, like Gecko) Chrome/12.0.742.122 Safari/534.30',
)
[ info ] [ PARAM ] array (
)
---------------------------------------------------------------
[ 2020-01-09T23:14:15+08:00 ] 221.179.144.118 GET tihuakeji.com/login
[运行时间：0.023439s] [吞吐率：42.66req/s] [内存消耗：2,961.78kb] [文件加载：69]
[ info ] [ LANG ] /www/wwwroot/39.97.170.249/thinkphp/lang/zh-cn.php
[ info ] [ ROUTE ] array (
  'rule' => 'login',
  'route' => 'home/login/login',
  'option' => 
  array (
    'merge_rule_regex' => false,
  ),
  'var' => 
  array (
  ),
)
[ info ] [ HEADER ] array (
  'accept-encoding' => 'gzip',
  'host' => 'tihuakeji.com',
  'connection' => 'Keep-Alive',
  'user-agent' => 'Mozilla/5.0 (Windows NT 5.2) AppleWebKit/534.30 (KHTML, like Gecko) Chrome/12.0.742.122 Safari/534.30',
  'cookie' => 'PHPSESSID=3ed94ee4de7ebc1eea02ec65a08b519a',
)
[ info ] [ PARAM ] array (
)
[ info ] [ VIEW ] /www/wwwroot/39.97.170.249/application/home/view/login/login.html [ array (
  0 => 'sys',
  1 => 'action',
  2 => 'controller',
) ]
